﻿Sr. No,Parameter Name,Input/Initial Value
1,scale_init,1
1,Psvc,9.8018
2,Pcrb,15.096
3,Qcrba,10.86
4,Pao,79.407
5,Qthao,-8.6594
6,Pthao,79.583
7,Qabao,-16.082
8,Pabao,80.391
9,Qlega,-11.308
10,Plega,85.307
11,Plegv,21.996
12,Pabivc,8.7553
13,Pthivc,8.5339
14,Ph,15.089
15,Qha,10.861
16,Pl,60.91
17,Pk,16.604
18,Pi,61.581
19,Vra,13.326
20,Qtri,0
21,Vrv,172.57
22,Qpul,0
23,Vla,17.761
24,Qmit,0
25,Vlv,154.9
26,Qao,0
27,Pcor,44.361
28,Qcora,2.3364
29,Qcorv,2.4423
30,Time,0
31,Pra,7.7258
32,Prv,7.7598
33,Pla,14.186
34,Plv,16.146
35,Aa,0.46881
36,elas,-0.020845
37,elasRV,0.058535
38,elasLV,0.11143
39,Pbar,15.45
40,Pith,0
41,Qsvc,32.438
42,Qcrbv,14.005
43,Qlegc,19.45
44,Qlegv,20.339
45,Qabivc,22.133
46,Qthivc,80.814
47,Qhv,13.987
48,Qla,10.378
49,Qlv,26.443
50,Qka,17.302
51,Qkv,22.416
52,Qia,4.7042
53,Qiv,8.2195
54,Qlunga1,0
55,Qlunga2,0
56,Qlungv1,52.681
57,Qlungv2,52.681
58,Qlungv_total,105.36
59,Plung1,15.45
60,Plung2,15.45
1,hr,60
2,tas_percent,30
3,t1_percent,24
4,Vra0,10
5,Vla0,5
6,CcsaR,0.65
7,csaR,0.27
8,dsaR,0.225
9,CcsaL,0.65
10,csaL,0.27
11,dsaL,0.225
12,tvs_percent,35
13,EmaxRV,0.0165
14,EoffsetRV,0.0028
15,EmaxLV,4.0775
16,EoffsetLV,0.128
17,Vrv0,40
18,Vlv0,10
19,AV_couple,0.03
20,fr,15
21,Trr,1
22,P0ith,-3.7
23,Apith,-3.9
24,Ltri,0.000001
25,Lpul,0.000005
26,Lmit,0.000001
27,Lao,0.000005
28,Ktri,0.00005
29,Kpul,0.00000035
30,Kmit,0.00005
31,Kao,0.0000025
32,Rpul,0.000025
33,Rao,0.000025
1,scale_hr,1
2,scale_tas_percent,1
3,scale_t1_percent,1
4,scale_Vra0,1
5,scale_Vla0,1
6,scale_CcsaR,1
7,scale_csaR,1
8,scale_dsaR,1
9,scale_CcsaL,1
10,scale_csaL,1
11,scale_dsaL,1
12,scale_tvs_percent,1
13,scale_EmaxRV,1
14,scale_EoffsetRV,1
15,scale_EmaxLV,1
16,scale_EoffsetLV,1
17,scale_Vrv0,1
18,scale_Vlv0,1
19,scale_AV_couple,1
20,scale_fr,1
21,scale_Trr,1
22,scale_P0ith,1
23,scale_Apith,1
24,scale_Ltri,1
25,scale_Lpul,1
26,scale_Lmit,1
27,scale_Lao,1
28,scale_Ktri,1
29,scale_Kpul,1
30,scale_Kmit,1
31,scale_Kao,1
32,scale_Rpul,1
33,scale_Rao,1
1,Ccor,0.006
2,Rcor,30
3,Lcrba,0.00012
4,Ccrb,8.8
5,Rcrb,6.3
6,Lha,0.00012
7,Ch,8
8,Rh,6.3
9,Csvc,22.5
10,Rsvc,0.064
11,Cao,0.9
12,Lthao,0.0002
13,Labao,0.0001
14,Cthao,0.8
15,Cabao,0.4
16,Rthao,0.12
17,Rabao,0.3
18,Llega,0.0002
19,Clega,6
20,Clegv,22.5
21,Rleg,4.34
22,Cabivc,13.5
23,Cthivc,27
24,Rabivc,0.01
25,Rthivc,0.01
26,Cl,15
27,Ck,15
28,Ci,18
29,Rl,3.78
30,Rk,4
31,Ri,4.08
32,Clung1,32
33,Clung2,32
34,Rlung1,0.1
35,Rlung2,0.1
1,scale_Ccor,1
2,scale_Rcor,1
3,scale_Lcrba,1
4,scale_Ccrb,1
5,scale_Rcrb,1
6,scale_Lha,1
7,scale_Ch,1
8,scale_Rh,1
9,scale_Csvc,1
10,scale_Rsvc,1
11,scale_Cao,1
12,scale_Lthao,1
13,scale_Labao,1
14,scale_Cthao,1
15,scale_Cabao,1
16,scale_Rthao,1
17,scale_Rabao,1
18,scale_Llega,1
19,scale_Clega,1
20,scale_Clegv,1
21,scale_Rleg,1
22,scale_Cabivc,1
23,scale_Cthivc,1
24,scale_Rabivc,1
25,scale_Rthivc,1
26,scale_Cl,1
27,scale_Ck,1
28,scale_Ci,1
29,scale_Rl,1
30,scale_Rk,1
31,scale_Ri,1
32,scale_Clung1,1
33,scale_Clung2,1
34,scale_Rlung1,1
35,scale_Rlung2,1
1,frac_cor_a,0.5
2,frac_crb_a,0.94
3,frac_h_a,0.94
4,frac_leg_a,0.1
5,frac_leg_v,0.15
6,frac_l_a,0.476
7,frac_k_a,0.91
8,frac_i_a,0.98
9,frac_lung1_a,0.52
10,frac_lung2_a,0.52
